<svg width="13" height="13" viewBox="0 0 13 13" fill="none" xmlns="http://www.w3.org/2000/svg">
<path d="M1 1L12 12.0002" stroke="#47484B" stroke-width="2" stroke-linecap="round" stroke-linejoin="round"/>
<path d="M1 12L12 0.999792" stroke="#47484B" stroke-width="2" stroke-linecap="round" stroke-linejoin="round"/>
</svg>
